# How variable is HVPT input: Data pipeline


# Read in raw data

``` r
durations <- read_excel("raw_durations.xlsx")
durations
```

    # A tibble: 180 × 4
       file                       label start   end
       <chr>                      <chr> <dbl> <dbl>
     1 baso_voiced_f_007_TextGrid <NA>   0     2.11
     2 baso_voiced_f_007_TextGrid lead   2.11  2.14
     3 baso_voiced_f_007_TextGrid <NA>   2.14  2.63
     4 baso_voiced_f_863_TextGrid <NA>   0     2.10
     5 baso_voiced_f_863_TextGrid lead   2.10  2.21
     6 baso_voiced_f_863_TextGrid <NA>   2.21  2.68
     7 baso_voiced_f_928_TextGrid <NA>   0     2.11
     8 baso_voiced_f_928_TextGrid lead   2.11  2.29
     9 baso_voiced_f_928_TextGrid <NA>   2.29  2.88
    10 baso_voiced_m_198_TextGrid <NA>   0     2.11
    # ℹ 170 more rows
…
